{
    "module": {
        "configuration": {
            "settings": {
                "external-config-storage": {
                    "value": "ExtensionEthelia"
                },
                "privatekey": {
                    "label": "Pheix generic-purpose private key",
                    "value": "72<84d5e~98#&a61^!(5324f7#0a5!@r"
                },
                "storage": {
                    "group": {
                        "ExtensionEthelia": {
                            "type": "0",
                            "path": "custom-config/storage/",
                            "strg": "",
                            "extn": "tnk",
                            "prtl": "https://",
                            "host": "127.0.0.1",
                            "port": "3306",
                            "hash": "0x0",
                            "user": "",
                            "pass": "",
                            "data": "undefined"
                        },
                        "Ethelia/config": {
                            "type": "1",
                            "path": "conf/system/eth",
                            "strg": "PheixDatabase",
                            "extn": "abi",
                            "prtl": "http://",
                            "host": "127.0.0.1",
                            "port": "8541",
                            "hash": "0x3ad9c91c3984d62768b9f2e18460c0375a0f34e03a800b3d2d336ad49f27999b",
                            "user": "",
                            "pass": "node1",
                            "data": "undefined"
                        }
                    }
                }
            }
        }
    }
}
